id, date_time, epoch_id
1,2015-01-01 00:00:00,None
2,2015-01-01 00:00:00,None
3,2015-01-01 00:00:00,None
4,2015-01-01 00:00:00,None
5,2015-01-01 00:00:00,None
10,2015-01-01 00:00:00,None
11,2015-01-01 00:00:00,None
13,2015-01-01 00:00:00,None
14,2015-05-19 00:00:00,None
18,2015-01-01 00:00:00,None
19,3005-05-19 00:00:00,None
20,0001-01-01 00:00:00,None
21,3005-05-19 00:00:00,3
22,2015-01-01 00:00:00,None
23,2015-01-01 00:00:00,None
24,2015-01-01 00:00:00,None
25,2015-01-01 00:00:00,None
26,2015-01-01 00:00:00,None
27,2015-01-01 00:00:00,None
28,2015-01-01 00:00:00,None
29,2015-01-01 00:00:00,None
30,2015-01-01 00:00:00,None
31,2015-01-01 00:00:00,None
32,2015-01-01 00:00:00,None
33,2015-01-01 00:00:00,None
34,2015-01-01 00:00:00,None
35,2015-01-01 00:00:00,None
36,2015-01-01 00:00:00,None
37,2015-01-01 00:00:00,None
38,2015-01-01 00:00:00,None
39,2015-01-01 00:00:00,None
40,2015-01-01 00:00:00,None
41,2015-01-01 00:00:00,None
42,2015-01-01 00:00:00,None
44,2015-01-01 00:00:00,None
48,0001-01-01 00:00:00,None
49,0001-01-01 00:00:00,None
131,3020-09-22 15:00:00,3
46,0001-01-01 00:00:00,None
47,3005-05-19 00:00:00,3
50,3017-03-17 23:59:00,3
51,3017-03-17 23:59:30,3
52,3017-03-18 00:00:00,3
54,3017-03-18 18:00:00,3
53,3017-03-18 03:30:00,3
55,3017-03-18 18:30:00,3
56,3017-03-18 21:00:00,3
57,3017-03-18 11:59:50,3
58,3017-03-19 00:00:00,3
59,3017-03-19 23:00:00,3
60,3017-03-19 23:59:59,3
61,3017-03-20 01:00:00,3
62,3017-03-20 09:00:00,3
63,3017-03-20 09:30:00,3
64,3017-03-20 11:00:00,3
65,3017-03-21 12:00:15,3
66,3017-03-21 08:00:00,3
67,3017-03-21 09:00:00,3
68,3017-03-21 02:30:00,3
70,3017-04-01 03:00:00,3
71,3017-04-01 10:15:00,3
69,3017-03-31 00:00:00,3
72,3017-04-01 10:15:00,3
73,3017-04-01 12:30:00,None
74,3017-04-01 02:00:00,3
75,3017-04-01 22:00:00,None
76,3017-04-02 06:00:00,3
77,3017-04-02 08:00:00,3
78,3017-04-02 10:00:00,3
79,3017-04-02 10:15:00,3
80,3017-04-02 13:00:00,3
81,3017-04-02 16:00:00,3
82,3017-04-03 08:00:00,3
83,3017-04-03 09:00:00,3
84,3017-04-03 09:10:00,3
85,3017-04-03 10:35:00,3
86,3017-04-03 13:00:00,3
87,3017-04-04 00:00:00,3
88,3017-05-19 12:00:00,3
89,3017-05-19 19:00:00,3
90,3020-09-20 16:00:00,3
91,3017-09-20 19:00:00,3
92,3020-09-21 11:00:00,3
95,3020-09-21 11:15:00,3
96,3020-09-21 11:45:00,3
100,0001-01-01 00:00:00,None
101,3004-10-09 00:00:00,None
102,0001-01-01 00:00:00,None
103,3005-07-12 00:00:00,3
104,0001-01-01 00:00:00,None
105,2895-09-06 00:00:00,3
106,0001-01-01 00:00:00,None
107,2986-12-07 00:00:00,3
108,0001-01-01 00:00:00,None
109,2964-05-06 00:00:00,3
132,3020-09-22 16:00:00,3
111,0001-01-01 00:00:00,None
112,0001-01-01 00:00:00,None
113,0001-01-01 00:00:00,None
114,2999-04-10 00:00:00,None
110,3020-09-21 19:00:00,3
99,3020-09-21 15:00:00,3
98,3020-09-21 13:00:00,3
97,3020-09-21 11:55:00,3
115,3020-09-21 20:00:00,3
116,3020-09-22 07:30:00,3
117,0001-01-01 00:00:00,None
118,3004-04-16 00:00:00,3
119,3020-09-22 07:30:00,3
120,2958-07-20 00:00:00,3
121,0001-01-01 00:00:00,None
122,3020-09-22 08:00:00,3
124,3020-09-22 09:00:00,3
125,3020-09-22 13:00:00,3
126,0001-01-01 00:00:00,None
127,0001-01-01 00:00:00,None
128,3020-09-22 14:00:00,3
129,0001-01-01 00:00:00,None
130,0001-01-01 00:00:00,None
134,3020-10-02 13:00:00,3
133,3020-09-26 01:00:00,3
135,3020-10-02 16:00:00,3
136,0001-01-01 00:00:00,None
137,3020-10-18 00:00:00,3
138,0001-01-01 00:00:00,None
139,3020-10-18 00:00:00,3
140,0001-01-01 00:00:00,None
141,3020-10-18 00:00:00,3
142,3020-10-02 16:30:00,3
143,3020-10-02 16:45:00,3
144,3020-10-02 05:00:00,3
145,3020-10-02 18:00:00,3
146,3020-10-02 21:00:00,3
147,3020-10-03 07:30:00,3
148,0001-01-01 00:00:00,None
149,0001-01-01 00:00:00,None
150,3020-10-14 14:30:00,3
151,3020-10-31 18:45:00,3
155,3020-10-31 19:00:00,3
156,3020-11-05 19:00:00,3
157,3020-12-02 19:45:00,3
159,3020-12-21 19:00:00,3
160,3020-12-21 19:00:00,3
165,0001-01-01 00:00:00,None
166,0001-01-01 00:00:00,None
167,3020-12-21 19:00:00,3
168,3020-12-21 19:00:00,3
169,3021-03-21 19:00:00,3
170,3021-05-19 19:00:00,3
173,3021-06-21 19:00:00,3
171,3021-05-19 11:00:00,3
172,3021-06-21 11:00:01,3
174,3021-07-11 07:15:00,3
175,3021-06-21 07:15:00,3
176,3021-06-21 07:15:00,3
177,0001-01-01 00:00:00,None
178,3010-03-18 00:00:00,3
179,0001-01-01 00:00:00,None
180,3009-04-18 00:00:00,3
181,0001-01-01 00:00:00,None
182,0001-01-01 00:00:00,None
45,2988-04-16 00:00:00,3
183,3021-09-20 14:15:00,3
184,3021-09-20 19:15:00,3
185,3021-09-20 20:00:00,3
186,3021-09-20 20:00:00,3
43,3005-05-19 00:00:00,3
187,0001-01-01 00:00:00,None
188,3007-02-03 00:00:00,3
189,3000-01-01 00:00:00,None
190,2957-04-16 00:00:00,3
191,3013-01-07 00:00:00,None
192,2988-05-01 00:00:00,3
193,3021-09-21 10:00:00,3
194,3021-09-21 17:00:00,3
195,3021-09-24 16:00:00,3
196,3021-09-24 17:00:00,3
197,0001-01-01 00:00:00,None
198,0001-01-01 00:00:00,None
199,3021-09-24 17:30:00,3
200,3021-09-25 07:30:00,3
201,3021-09-29 01:30:00,3
203,3021-09-29 02:00:00,3
202,3021-09-29 02:00:00,3
204,3021-09-29 02:00:00,3
205,3021-09-29 02:00:00,3
206,3021-09-29 02:00:00,3
207,3021-09-29 07:00:00,3
