id,name,pc_class,town_char_level_roll
1,Adept,FALSE,1d6
2,Aristocrat,FALSE,1d4
3,Barbarian,TRUE,1d4
4,Bard,TRUE,1d6
5,Cleric,TRUE,1d6
6,Commoner,FALSE,4d4
7,Druid,TRUE,1d6
8,Expert,FALSE,3d4
9,Fighter,TRUE,1d8
10,Monk,TRUE,1d4
11,Paladin,TRUE,1d3
12,Ranger,TRUE,1d3
13,Rogue,TRUE,1d8
14,Sorcerer,TRUE,1d4
15,Warrior,TRUE,2d4
16,Wizard,TRUE,1d4
