location_parent, location_child
3,1
4,1
6,1
7,1
8,1
9,1
10,1
11,1
12,1
13,3
14,13
15,14
16,14
17,16
19,16
22,13
26,13
27,13
28,13
29,28
30,28
31,16
32,12
33,32
34,33
35,32
36,35
37,36
38,37
39,37
40,37
41,37
42,37
44,35
45,32
46,45
47,45
48,45
49,19
50,49
51,50
52,51
53,49
55,53
56,55
57,50
58,19
59,50
60,50
61,14
62,61
63,18
64,63
65,63
66,63
67,63
68,18
70,18
71,18
72,71
73,18
74,18
75,74
76,75
77,76
78,77
79,18
80,18
81,18
82,18
83,18
84,74
85,74
86,83
87,18
88,18
89,18
90,19
91,49
93,18
94,93
95,94
96,94
2,1
