id, name_id, description, terrain, type, mk_del
1,The Nine Realms of Annatar,A multiversal setting of nine parallel and interrelated worlds based roughly on Norse mythology.%582,,Universe,False
2,Aetherium,The concept of heaven in the Annatari religion.%582Test1,,World,False
3,Alfheim,ancestral homeland of the elves%304 though it houses a large population of  Most of the action of The Crying Sky and it's sequels and prequels happen on this world.%582,,World,False
4,Vanaheim,A forest world teeming with strange life forms%304 including the gigantic vanir%304 which are some of the oldest beings in the universe.%582%582,,World,False
6,Muspelheim,World of primordial fire%582%582,,World,False
7,Vanaheim,A forest world teeming with strange life forms%304 including the gigantic vanir%304 which are some of the oldest beings in the universe.%582%582,,World,False
8,Jotunheim,Barren world of wide plains and impassible mountains%304 home to the gigantic Collossi.%582,heavily mountainous,World,False
9,Niflheim,Inhospitable world of primordial ice%582,endless tundra and towering glaciers,World,False
10,Svartalfheim,Shadowy world of the Drow and Vampires. A geographical echo of Alfheim%582,,World,False
11,Helheim,Annatari concept of the underworld%582,,World,False
12,Midgard,Original homeland of humans%304 Midgard does not posess magic%582,,World,False
13,Ela Tierra,main Pangean continent%582,,None,False
14,Eldrigar,%582,,State,False
15,Sindugard,%582,,City,False
16,Southern Eldrigar,%582,,None,False
17,Maruvann,%582,,City,False
18,Kinderoch,%582,,Castle,False
19,Tangrisen,%582,,Town,False
22,Crynon,%582,,State,False
23,Goloma,%582,,State,False
26,Helia,%582,,State,False
27,Aeroma,Western Penn,,State,False
28,Dark Forest,On the eastern side of the Kalnai Lun%304 is an endless forest%304 most of which is a mystery to most of the western cartographers.%582,Heavily Wooded,None,False
29,Shadow Kingdom,In the heart of the dark forest is the mysterious kingdom of Shadowbinders and werewolves.%582,,State,False
30,Yggdrassil,%582,,State,False
31,Maruvann,This is a description,,City,False
32,Gonland,Superpower nation in Midgard.,,State,False
33,Avalon,Capital of Gonland. Seraphim Abbey%304 where Seraphae was raised%304 is in this city.,Urban,City,False
34,Seraphim Abbey,Ancient cross-shaped cathedral%304 for the worship of Jesus Christ and the LORD.,,None,False
35,Knox,,,City,False
36,Kensington Street,,,None,False
37,Bailey's Orphanage,A large house in suburban Knox%304 where Corwulf lived for the first ten years of his life.,,None,False
38,Living Room,,,None,False
39,Outside Porch,,,None,False
40,Corwulf and Theodore's bedroom,,,None,False
41,Kitchen,,,None,False
42,Chelsey's Bedroom,A dark and forboding place full of rock music and dark posters.,,None,False
43,Morgue,A sterile room with chrome-plated refrig drawers.,,None,False
44,Knox Woods,,light woods,None,False
45,Cord Mountains,the Midgard version of the Golomic mountains%304 the highest mountain range in the world.,Heavily mountainous%304 but passable.,None,False
46,Landing Site,,,None,False
47,Cliff,,,None,False
48,Blast Site,Site where Mulciber's blast is blocked by Marek's shield spell.,,None,False
49,Sophia Manor,,,None,False
50,West Wing,,,None,False
51,Lord's Corridor,,,None,False
52,Corwulf's Bedroom,,,None,False
53,East Wing,,,None,False
54,Dining Room,The table was just as enormous as the rest of the house%304 thirty feet long%304 but with only three places set%304 which Corwulf thought was odd.,,None,False
55,Refectory,Small kitchen in the servants hall.,Indoor,None,False
56,Pentacle Courtyard,A large courtyard in the center of the manor%304 with a green lawn crisscrossed by stone paths.,,None,False
57,Library,,,None,False
58,Sophia Wharf,,,None,False
59,West Bailey,the grassy one%304 not the flower garden.,,None,False
60,Chapel,Small Chapel devoted to Annator that exists within the Sophia Manor.,,None,False
61,Annaeron Plain,,,None,False
62,Kinderoch,,,Town,False
63,First Floor,,,None,False
64,Kinderoch Pentacle Courtyard,,,None,False
65,Kinderoch Uniform Room,A long room full of racks upon racks of uniforms for the students of Kinderoch.,,None,False
66,Entrance Hall,,,None,False
67,First Floor Corridor,,,None,False
68,Fourth Floor,,,None,False
69,Library,They ascended a staircase to the fourth floor%304 and followed another corridor toward the center of the castle%304 and found themselves at a stone archway marked LIBRARY. Ivan beckoned them through%304 and they were once again amazed at the sheer size of the cavernous hall. The entirety of Sophia Manor could fit inside the library. They could just barely see the opposing wall over two hundred feet away. Above them%304 bookshelves rose more stories than Corwulf could count%304 topped by an ornately tiled ceiling. Every twenty feet or so%304 long ladders stood on wooden balconies so that people could access the books.,,None,False
70,Hall of Dragons,They entered a large rotunda a hundred feet across%304 the dome above them was made from purple stone. Tiny diamonds were imbedded in the deep-purple ceiling%304 which reflected the light from the enormous mage-light in the exact center of the hall. Around this magical lantern was a hexagon etched in the floor connected six dragon statues that stood in alcoves equidistant from each other. The seventh and biggest of the dragon statues was made from solid gold and hung from the ceiling of a rotunda. Its outstretched wings had to measure thirty feet from wingtip to wingtip.%582Each one was made from a different sort of stone%304 which Corwulf recognized from a book of minerals that he had in his room in Gonland. There was snow-white marble%304 pink jasper flecked with crimson with deep ruby eyes%304 a five-foot statue of deep yellow-gold amber%304 a sea serpent carved from tanzanite%304 and a stocky%304 four-legged wingless dragon made from solid jade. Corwulf's favorite was made from dark opal that glittered with flecks of starlight.,,None,False
71,Abandoned section,,,None,False
72,Forbidden Door,,,None,False
73,Feast Hall,The walls of the gigantic hall were covered in the same tall narrow windows that were found everywhere in Caesari architecture%304 only this time there was more window than wall. The setting sun was clearly visible to their right. Already%304 torches along the wall%304 as well as three enormous%304 blazing crystal chandeliers illuminated the tables below. Many small%304 round tables%304 as well as a few long tables dotted with uniformed students. A single long table stretched along the far wall%304 where the adults were sitting.,,None,False
74,Residence Wing,The section of the castle where the student live.,,None,False
75,Dormitory Section,,,None,False
76,Third Floor,,,None,False
77,Corwulf's Suite,A suite in Kinderoch shared by Corwulf%304 Ivan%304 Arendon%304 Sebastian and Corrin,,None,False
78,Corwulf and Ivan's bedroom,,,None,False
79,Salllous' Classroom,,,None,False
80,History Classroom,,,None,False
81,Magic Classroom,,,None,False
82,Upper Garden,Not far from the magic classroom,,None,False
83,Fighting Dojo,,,None,False
84,First Commons,,,None,False
85,Second Commons,,,None,False
86,Dressing Rooms,,,None,False
87,Meeting Hall,,,None,False
88,Costume Loft,,,None,False
89,Largest Courtyard,,,None,False
90,Picnic Site,,,None,False
91,Sophia Stables,,,None,False
92,None,,,None,False
93,Interior Cavern,A gigantic domelike cavern beneath the mountain on top of which rests Kinderoch Fortress,,None,False
94,Undercastle,,,None,False
95,Annaeron's Library,The walls of the room were covered with wooden cubbyholes for scrolls%304 some were just a slip of paper%304 but others were gargantuan affairs covered in gold leaf and velvet. The center of the room was a huge long table piled a foot high with papers and stacks of codexes. More books lay scattered in piles across the floor. As libraries go%304 this was tiny and dusty. The room was even smaller than the quaint hall below%304 probably no more than fifty feet long by twenty wide. It likely held less volume than the Sophia library.,,None,False
96,Undercastle Cellar,The cellar was a dimly lit hall of drab%304 damp stone. In the center was an archway of simple marble. It was labeled with nine runes%304 but they were not carved so much as features in the webbed veins of the marble. Inside the archway was a stout wooden door%304 but it didn't go anywhere. Before the archway was a rough-hewn stone pedestal%304 with a glowing gemstone the size of a bowling ball set into the top.,,None,False
