id, name, description
9,Outline,A vague idea of what happens%304 but nothing has been put to text yet
10,Rough Draft,Scene is written%304 but not necessarily polished.
11,Author Revision,I've looked at it%304 but actual editors haven't.
12,Edited,A third-party editor has looked at it.
13,Done,Done.
