id, d_upper, town_size, pop_upper, gp_limit, power_mod, power_mult, level_mod
1,  10,  Thorp,  80,  40,  -1, None,  -3, 
2,  30,  Hamlet,  400,  100,  0, None,  -2, 
3,  50,  Village,  900,  200,  1, None,  -1, 
4,  70,  Small Town,  2000,  800,  2, None,  0, 
5,  85,  Large Town,  5000,  3000,  3, None,  3, 
6,  95,  Small City,  12000,  15000,  4, None,  6, 
7,  99,  Large City,  25000,  40000,  5, None,  9, 
8,  100,  Metropolis,  100000,  100000,  6, None,  12, 
